UART/simulation/modelsim/uart_tx_tb.vcd
$date
	Tue May 06 01:57:45 2025
$end
$version
	ModelSim Version 2020.1
$end
$timescale
	1ps
$end

$scope module uart_tx_tb $end
$var parameter 32 ! CLOCKS_PER_PULSE $end
$var parameter 32 " BITS_PER_WORD $end
$var parameter 32 # PACKET_SIZE $end
$var reg 1 $ clk $end
$var reg 1 % rstn $end
$var reg 1 & s_valid $end
$var reg 8 ' s_data [7:0] $end
$var reg 1 ( tx $end
$var reg 1 ) s_ready $end

$scope module dut $end
$var parameter 32 * CLOCKS_PER_PULSE $end
$var parameter 32 + BITS_PER_WORD $end
$var parameter 32 , PACKET_SIZE $end
$var parameter 32 - END_BITS $end
$var wire 1 . clk $end
$var wire 1 / rstn $end
$var wire 1 0 s_valid $end
$var wire 1 1 s_data [7] $end
$var wire 1 2 s_data [6] $end
$var wire 1 3 s_data [5] $end
$var wire 1 4 s_data [4] $end
$var wire 1 5 s_data [3] $end
$var wire 1 6 s_data [2] $end
$var wire 1 7 s_data [1] $end
$var wire 1 8 s_data [0] $end
$var reg 1 9 tx $end
$var reg 1 : s_ready $end
$var reg 1 ; state $end
$var reg 13 < s_packet [12:0] $end
$var reg 13 = s_packet_reg [12:0] $end
$var reg 4 > c_bits [3:0] $end
$var reg 4 ? c_clocks [3:0] $end
$upscope $end
$upscope $end
$enddefinitions $end
#0
$dumpvars
0$
0%
0&
b0 '
1(
1)
19
1:
0;
b1111000000000 <
b1111111111111 =
b0 >
b0 ?
b1010 !
b1000 "
b1101 #
b1010 *
b1000 +
b1101 ,
b100 -
0.
0/
00
08
07
06
05
04
03
02
01
$end
#5000
1$
1.
#10000
0$
0.
#15000
1$
1.
#20000
1%
0$
1/
0.
#25000
1$
1.
b10100101 '
1&
10
18
16
13
11
b1111101001010 <
#30000
0$
0.
#35000
1$
1.
0&
00
b1111101001010 =
1;
0:
09
0(
0)
#40000
0$
0.
#45000
1$
1.
b111100 '
1&
10
08
15
14
01
b1111001111000 <
b1 ?
#50000
0$
0.
#55000
1$
1.
0&
00
b10 ?
#60000
0$
0.
#65000
1$
1.
b11 ?
#70000
0$
0.
#75000
1$
1.
b100 ?
#80000
0$
0.
#85000
1$
1.
b101 ?
#90000
0$
0.
#95000
1$
1.
b110 ?
#100000
0$
0.
#105000
1$
1.
b111 ?
#110000
0$
0.
#115000
1$
1.
b1000 ?
#120000
0$
0.
#125000
1$
1.
b1001 ?
#130000
0$
0.
#135000
1$
1.
b0 ?
b1 >
b111110100101 =
19
1(
#140000
0$
0.
#145000
1$
1.
b1 ?
#150000
0$
0.
#155000
1$
1.
b10 ?
#160000
0$
0.
#165000
1$
1.
b11 ?
#170000
0$
0.
#175000
1$
1.
b100 ?
#180000
0$
0.
#185000
1$
1.
b101 ?
#190000
0$
0.
#195000
1$
1.
b110 ?
#200000
0$
0.
#205000
1$
1.
b111 ?
#210000
0$
0.
#215000
1$
1.
b1000 ?
#220000
0$
0.
#225000
1$
1.
b1001 ?
#230000
0$
0.
#235000
1$
1.
b0 ?
b10 >
b11111010010 =
09
0(
#240000
0$
0.
#245000
1$
1.
b1 ?
#250000
0$
0.
#255000
1$
1.
b10 ?
#260000
0$
0.
#265000
1$
1.
b11 ?
#270000
0$
0.
#275000
1$
1.
b100 ?
#280000
0$
0.
#285000
1$
1.
b101 ?
#290000
0$
0.
#295000
1$
1.
b110 ?
#300000
0$
0.
#305000
1$
1.
b111 ?
#310000
0$
0.
#315000
1$
1.
b1000 ?
#320000
0$
0.
#325000
1$
1.
b1001 ?
#330000
0$
0.
#335000
1$
1.
b0 ?
b11 >
b1111101001 =
19
1(
#340000
0$
0.
#345000
1$
1.
b1 ?
#350000
0$
0.
#355000
1$
1.
b10 ?
#360000
0$
0.
#365000
1$
1.
b11 ?
#370000
0$
0.
#375000
1$
1.
b100 ?
#380000
0$
0.
#385000
1$
1.
b101 ?
#390000
0$
0.
#395000
1$
1.
b110 ?
#400000
0$
0.
#405000
1$
1.
b111 ?
#410000
0$
0.
#415000
1$
1.
b1000 ?
#420000
0$
0.
#425000
1$
1.
b1001 ?
#430000
0$
0.
#435000
1$
1.
b0 ?
b100 >
b111110100 =
09
0(
#440000
0$
0.
#445000
1$
1.
b1 ?
#450000
0$
0.
#455000
1$
1.
b10 ?
#460000
0$
0.
#465000
1$
1.
b11 ?
#470000
0$
0.
#475000
1$
1.
b100 ?
#480000
0$
0.
#485000
1$
1.
b101 ?
#490000
0$
0.
#495000
1$
1.
b110 ?
#500000
0$
0.
#505000
1$
1.
b111 ?
#510000
0$
0.
#515000
1$
1.
b1000 ?
#520000
0$
0.
#525000
1$
1.
b1001 ?
#530000
0$
0.
#535000
1$
1.
b0 ?
b101 >
b11111010 =
#540000
0$
0.
#545000
1$
1.
b1 ?
#550000
0$
0.
#555000
1$
1.
b10 ?
#560000
0$
0.
#565000
1$
1.
b11 ?
#570000
0$
0.
#575000
1$
1.
b100 ?
#580000
0$
0.
#585000
1$
1.
b101 ?
#590000
0$
0.
#595000
1$
1.
b110 ?
#600000
0$
0.
#605000
1$
1.
b111 ?
#610000
0$
0.
#615000
1$
1.
b1000 ?
#620000
0$
0.
#625000
1$
1.
b1001 ?
#630000
0$
0.
#635000
1$
1.
b0 ?
b110 >
b1111101 =
19
1(
#640000
0$
0.
#645000
1$
1.
b1 ?
#650000
0$
0.
#655000
1$
1.
b10 ?
#660000
0$
0.
#665000
1$
1.
b11 ?
#670000
0$
0.
#675000
1$
1.
b100 ?
#680000
0$
0.
#685000
1$
1.
b101 ?
#690000
0$
0.
#695000
1$
1.
b110 ?
#700000
0$
0.
#705000
1$
1.
b111 ?
#710000
0$
0.
#715000
1$
1.
b1000 ?
#720000
0$
0.
#725000
1$
1.
b1001 ?
#730000
0$
0.
#735000
1$
1.
b0 ?
b111 >
b111110 =
09
0(
#740000
0$
0.
#745000
1$
1.
b1 ?
#750000
0$
0.
#755000
1$
1.
b10 ?
#760000
0$
0.
#765000
1$
1.
b11 ?
#770000
0$
0.
#775000
1$
1.
b100 ?
#780000
0$
0.
#785000
1$
1.
b101 ?
#790000
0$
0.
#795000
1$
1.
b110 ?
#800000
0$
0.
#805000
1$
1.
b111 ?
#810000
0$
0.
#815000
1$
1.
b1000 ?
#820000
0$
0.
#825000
1$
1.
b1001 ?
#830000
0$
0.
#835000
1$
1.
b0 ?
b1000 >
b11111 =
19
1(
#840000
0$
0.
#845000
1$
1.
b1 ?
#850000
0$
0.
#855000
1$
1.
b10 ?
#860000
0$
0.
#865000
1$
1.
b11 ?
#870000
0$
0.
#875000
1$
1.
b100 ?
#880000
0$
0.
#885000
1$
1.
b101 ?
#890000
0$
0.
#895000
1$
1.
b110 ?
#900000
0$
0.
#905000
1$
1.
b111 ?
#910000
0$
0.
#915000
1$
1.
b1000 ?
#920000
0$
0.
#925000
1$
1.
b1001 ?
#930000
0$
0.
#935000
1$
1.
b0 ?
b1001 >
b1111 =
#940000
0$
0.
#945000
1$
1.
b1 ?
#950000
0$
0.
#955000
1$
1.
b10 ?
#960000
0$
0.
#965000
1$
1.
b11 ?
#970000
0$
0.
#975000
1$
1.
b100 ?
#980000
0$
0.
#985000
1$
1.
b101 ?
#990000
0$
0.
#995000
1$
1.
b110 ?
#1000000
0$
0.
#1005000
1$
1.
b111 ?
#1010000
0$
0.
#1015000
1$
1.
b1000 ?
#1020000
0$
0.
#1025000
1$
1.
b1001 ?
#1030000
0$
0.
#1035000
1$
1.
b0 ?
b1010 >
b111 =
#1040000
0$
0.
#1045000
1$
1.
b1 ?
#1050000
0$
0.
#1055000
1$
1.
b10 ?
#1060000
0$
0.
#1065000
1$
1.
b11 ?
#1070000
0$
0.
#1075000
1$
1.
b100 ?
#1080000
0$
0.
#1085000
1$
1.
b101 ?
#1090000
0$
0.
#1095000
1$
1.
b110 ?
#1100000
0$
0.
#1105000
1$
1.
b111 ?
